<svg width="16" height="16" viewBox="0 0 16 16" fill="none" xmlns="http://www.w3.org/2000/svg">
<path opacity="1" d="M8 0C10.21 0 12 1.79 12 4C12 6.21 10.21 8 8 8C5.79 8 4 6.21 4 4C4 1.79 5.79 0 8 0ZM8 16C8 16 16 16 16 14C16 11.6 12.1 9 8 9C3.9 9 0 11.6 0 14C0 16 8 16 8 16Z" fill="#4743E0"/>
</svg>
